{
	"info": {
		"_postman_id": "dbd0edcb-f837-4451-afcd-4fbb28fa14c8",
		"name": "EmployeeEventService",
		"schema": "https://schema.getpostman.com/json/collection/v2.1.0/collection.json"
	},
	"item": [
		{
			"name": "createDepartment",
			"request": {
				"method": "POST",
				"header": [
					{
						"key": "Content-Type",
						"name": "Content-Type",
						"value": "application/json",
						"type": "text"
					},
					{
						"key": "Authorization",
						"value": "Bearer eyJhbGciOiJIUzI1NiJ9.eyJzdWIiOiJhZG1pbiIsInJvbGVzIjpbIlJPTEVfVVNFUiIsIlJPTEVfQURNSU4iXSwiaWF0IjoxNTU2MzM2MjU4LCJleHAiOjE1NTYzNjUwNTh9.OA335XwVE0PQgPTNbYIFzdy2aR7BMZ21HJLP3E8QVcc",
						"type": "text"
					}
				],
				"body": {
					"mode": "raw",
					"raw": "{\n\t\"name\": \"department 1\"\n}"
				},
				"url": {
					"raw": "http://localhost:8080/api/departments",
					"protocol": "http",
					"host": [
						"localhost"
					],
					"port": "8080",
					"path": [
						"api",
						"departments"
					]
				}
			},
			"response": []
		},
		{
			"name": "createEmployee",
			"request": {
				"method": "POST",
				"header": [
					{
						"key": "Content-Type",
						"name": "Content-Type",
						"type": "text",
						"value": "application/json"
					},
					{
						"key": "Authorization",
						"value": "Bearer eyJhbGciOiJIUzI1NiJ9.eyJzdWIiOiJhZG1pbiIsInJvbGVzIjpbIlJPTEVfVVNFUiIsIlJPTEVfQURNSU4iXSwiaWF0IjoxNTU2MjAwODQ3LCJleHAiOjE1NTYyMjk2NDd9.QGiXodND5vf4ih5smB6DO8-RoDMxbU6g9Nu2xh-ioSM",
						"type": "text"
					}
				],
				"body": {
					"mode": "raw",
					"raw": "{\n\t\"email\": \"employee1@gmail.com\",\n\t\"fullName\": \"Employee 1\",\n\t\"departmentId\": 1,\n\t\"birthday\": \"2012-02-22\"\n}"
				},
				"url": {
					"raw": "http://localhost:8080/api/employees",
					"protocol": "http",
					"host": [
						"localhost"
					],
					"port": "8080",
					"path": [
						"api",
						"employees"
					]
				}
			},
			"response": []
		},
		{
			"name": "updateEmployee",
			"request": {
				"method": "PUT",
				"header": [
					{
						"key": "Content-Type",
						"name": "Content-Type",
						"type": "text",
						"value": "application/json"
					},
					{
						"key": "Authorization",
						"value": "Bearer eyJhbGciOiJIUzI1NiJ9.eyJzdWIiOiJhZG1pbiIsInJvbGVzIjpbIlJPTEVfVVNFUiIsIlJPTEVfQURNSU4iXSwiaWF0IjoxNTU2MjAwODQ3LCJleHAiOjE1NTYyMjk2NDd9.QGiXodND5vf4ih5smB6DO8-RoDMxbU6g9Nu2xh-ioSM",
						"type": "text"
					}
				],
				"body": {
					"mode": "raw",
					"raw": "{\n\t\"id\": \"b3b6c233-91f3-4164-bbd0-436b5e156511\",\n\t\"email\": \"employee2@gmail.com\",\n\t\"fullName\": \"Employee 2\",\n\t\"departmentId\": 1,\n\t\"birthday\": \"1990-05-05\"\n}"
				},
				"url": {
					"raw": "http://localhost:8080/api/employees",
					"protocol": "http",
					"host": [
						"localhost"
					],
					"port": "8080",
					"path": [
						"api",
						"employees"
					]
				}
			},
			"response": []
		},
		{
			"name": "findEmployeeById",
			"request": {
				"method": "GET",
				"header": [
					{
						"key": "Content-Type",
						"name": "Content-Type",
						"type": "text",
						"value": "application/json"
					}
				],
				"body": {
					"mode": "raw",
					"raw": ""
				},
				"url": {
					"raw": "http://localhost:8080/api/employees/b3b6c233-91f3-4164-bbd0-436b5e156511",
					"protocol": "http",
					"host": [
						"localhost"
					],
					"port": "8080",
					"path": [
						"api",
						"employees",
						"b3b6c233-91f3-4164-bbd0-436b5e156511"
					]
				}
			},
			"response": []
		},
		{
			"name": "findAllEvents",
			"request": {
				"method": "GET",
				"header": [
					{
						"key": "Content-Type",
						"name": "Content-Type",
						"type": "text",
						"value": "application/json"
					}
				],
				"body": {
					"mode": "raw",
					"raw": ""
				},
				"url": {
					"raw": "http://localhost:8085/api/events",
					"protocol": "http",
					"host": [
						"localhost"
					],
					"port": "8085",
					"path": [
						"api",
						"events"
					]
				}
			},
			"response": []
		},
		{
			"name": "deleteEmployeeById",
			"request": {
				"method": "DELETE",
				"header": [
					{
						"key": "Content-Type",
						"name": "Content-Type",
						"type": "text",
						"value": "application/json"
					},
					{
						"key": "Authorization",
						"value": "Bearer eyJhbGciOiJIUzI1NiJ9.eyJzdWIiOiJhZG1pbiIsInJvbGVzIjpbIlJPTEVfVVNFUiIsIlJPTEVfQURNSU4iXSwiaWF0IjoxNTU2MjAwODQ3LCJleHAiOjE1NTYyMjk2NDd9.QGiXodND5vf4ih5smB6DO8-RoDMxbU6g9Nu2xh-ioSM",
						"type": "text"
					}
				],
				"body": {
					"mode": "raw",
					"raw": ""
				},
				"url": {
					"raw": "http://localhost:8080/api/employees/b3b6c233-91f3-4164-bbd0-436b5e156511",
					"protocol": "http",
					"host": [
						"localhost"
					],
					"port": "8080",
					"path": [
						"api",
						"employees",
						"b3b6c233-91f3-4164-bbd0-436b5e156511"
					]
				}
			},
			"response": []
		},
		{
			"name": "Login",
			"request": {
				"method": "POST",
				"header": [
					{
						"key": "Content-Type",
						"name": "Content-Type",
						"value": "application/json",
						"type": "text"
					}
				],
				"body": {
					"mode": "raw",
					"raw": "{\n\t\"username\": \"admin\",\n\t\"password\": \"admin\"\n}"
				},
				"url": {
					"raw": "localhost:8080/login",
					"host": [
						"localhost"
					],
					"port": "8080",
					"path": [
						"login"
					]
				}
			},
			"response": []
		}
	]
}